<?xml version="1.0" encoding="UTF-8" standalone="no"?>
<!-- Created with Inkscape (http://www.inkscape.org/) -->

<svg
   xmlns:dc="http://purl.org/dc/elements/1.1/"
   xmlns:cc="http://creativecommons.org/ns#"
   xmlns:rdf="http://www.w3.org/1999/02/22-rdf-syntax-ns#"
   xmlns:svg="http://www.w3.org/2000/svg"
   xmlns="http://www.w3.org/2000/svg"
   xmlns:sodipodi="http://sodipodi.sourceforge.net/DTD/sodipodi-0.dtd"
   xmlns:inkscape="http://www.inkscape.org/namespaces/inkscape"
   width="512mm"
   height="512mm"
   viewBox="0 0 1814.1732 1814.1732"
   id="svg4160"
   version="1.1"
   inkscape:version="0.91 r13725"
   sodipodi:docname="universis_icon_logo.svg"
   inkscape:export-filename="/Users/kbarbounakis/Projects/universis/universis-teachers/src/assets/img/favicon.png"
   inkscape:export-xdpi="4.96"
   inkscape:export-ydpi="4.96">
  <defs
     id="defs4162" />
  <sodipodi:namedview
     id="base"
     pagecolor="#ffffff"
     bordercolor="#666666"
     borderopacity="1.0"
     inkscape:pageopacity="0.0"
     inkscape:pageshadow="2"
     inkscape:zoom="0.30537326"
     inkscape:cx="907.08661"
     inkscape:cy="907.08661"
     inkscape:document-units="px"
     inkscape:current-layer="layer1"
     showgrid="true"
     inkscape:window-width="1280"
     inkscape:window-height="756"
     inkscape:window-x="0"
     inkscape:window-y="1"
     inkscape:window-maximized="0">
    <inkscape:grid
       type="xygrid"
       id="grid4708" />
  </sodipodi:namedview>
  <metadata
     id="metadata4165">
    <rdf:RDF>
      <cc:Work
         rdf:about="">
        <dc:format>image/svg+xml</dc:format>
        <dc:type
           rdf:resource="http://purl.org/dc/dcmitype/StillImage" />
        <dc:title />
      </cc:Work>
    </rdf:RDF>
  </metadata>
  <g
     inkscape:label="Layer 1"
     inkscape:groupmode="layer"
     id="layer1"
     transform="translate(0,761.81102)">
    <g
       id="g4720"
       transform="matrix(4.8,0,0,4.8,-3255.9296,-537.94364)">
      <path
         transform="matrix(0,-1,1,0,0,0)"
         d="M 27.657349,824.46484 A 170,170 0 0 1 -141.39249,994.46219 170,170 0 0 1 -312.33203,826.36514"
         sodipodi:open="true"
         sodipodi:end="3.1304142"
         sodipodi:start="0"
         sodipodi:ry="170"
         sodipodi:rx="170"
         sodipodi:cy="824.46484"
         sodipodi:cx="-142.34265"
         sodipodi:type="arc"
         id="path4152"
         style="opacity:1;fill:#c51162;fill-opacity:1;stroke:none;stroke-width:40;stroke-linejoin:miter;stroke-miterlimit:4;stroke-dasharray:none;stroke-opacity:1" />
      <path
         transform="matrix(0,1,-1,0,0,0)"
         d="m 311.82635,-825.12524 a 85,85 0 0 1 -84.80927,84.99978 85,85 0 0 1 -85.18987,-84.61833"
         sodipodi:open="true"
         sodipodi:end="3.1371049"
         sodipodi:start="0"
         sodipodi:ry="85"
         sodipodi:rx="85"
         sodipodi:cy="-825.12524"
         sodipodi:cx="226.82635"
         sodipodi:type="arc"
         id="path4152-5"
         style="opacity:1;fill:#5c6bc0;fill-opacity:1;stroke:none;stroke-width:40;stroke-linejoin:miter;stroke-miterlimit:4;stroke-dasharray:none;stroke-opacity:1" />
      <path
         transform="matrix(0,-1,1,0,0,0)"
         d="m -141.82721,824.78772 a 85,85 0 0 1 -84.80927,84.99979 85,85 0 0 1 -85.18987,-84.61833"
         sodipodi:open="true"
         sodipodi:end="3.1371049"
         sodipodi:start="0"
         sodipodi:ry="85"
         sodipodi:rx="85"
         sodipodi:cy="824.78772"
         sodipodi:cx="-226.82721"
         sodipodi:type="arc"
         id="path4152-5-4"
         style="opacity:1;fill:#ffffff;fill-opacity:1;stroke:none;stroke-width:40;stroke-linejoin:miter;stroke-miterlimit:4;stroke-dasharray:none;stroke-opacity:1" />
    </g>
  </g>
</svg>
