{
    "title": "Instructors",
    "model": "Instructors",
    "searchExpression":"indexof(department/name, '${text}') ge 0 or indexof(category, '${text}') ge 0 or indexof(familyName, '${text}') ge 0 or indexof(givenName, '${text}') ge 0)",
    "columns": [
        {
            "name":"familyName",
            "title":"Instructors.FamilyName"
        },
        {
            "name":"givenName",
            "title":"Instructors.GivenName"
        },
        {
            "name":"category",
            "title":"Instructors.Category"
        },
        {
            "name":"department/name",
            "property": "departmentName",
            "title":"Instructors.Department"
        },
        {
            "name":"email",
            "title":"Instructors.Email"
        },
        {
            "name":"homeAddress",
            "title":"Instructors.HomeAddress"
        },
        {
            "name":"homePhone",
            "title":"Instructors.HomePhone"
        }
    ],
    "criteria": [
        {
            "name": "InstructorStatus",
            "title": "Instructors.Status",
            "values": [
                {
                    "title":"Instructors.Active",
                    "filter":"status eq 1"
                },
                {
                    "Title":"Instructors.Inactive",
                    "filter":"status eq 2"
                }
            ]
        }
    ]
}
